41.8498;-196.056
43.1352;-192.016
37.371;-198.024
36.7965;-192.318
38.7927;-194.46
37.6666;-193.711
43.5411;-194.866
40.3759;-190.838
35.4348;-192.827
34.1818;-193.93
35.3911;-197.571
35.5856;-191.958
35.3167;-195.991
44.008;-198.912
39.1481;-197.817
40.1452;-191.609
40.3943;-197.04
38.9546;-194.757
36.9439;-190.272
39.2862;-192.286
38.0211;-192.301
36.8519;-191.085
42.096;-196.475
34.7163;-190.81
39.2787;-190.507
35.9409;-199.139
42.9211;-193.368
34.6605;-196.511
38.5958;-199.8
36.4016;-199.369
43.0409;-190.294
36.6854;-191.491
37.7708;-194.602
39.1441;-192.398
39.3348;-193.323
38.3951;-199.607
43.3269;-190.682
36.8617;-192.79
40.4186;-192.615
40.8974;-196.46
38.4198;-198.34
42.3108;-191.199
36.3085;-196.697
37.5224;-191.066
43.5835;-193.133
40.5918;-194.114
38.4144;-191.413
38.0031;-190.76
40.861;-191.852
38.8437;-190.89
43.5213;-197.842
35.4954;-190.799
40.4296;-191.189
40.2147;-195.68
41.8788;-197.189
38.4891;-196.925
35.8941;-197.739
39.5832;-197.238
35.7148;-195.835
35.0505;-190.932
38.9732;-198.739
43.8663;-192.395
40.8632;-190.65
41.5165;-196.168
36.9604;-196.313
39.8637;-197.677
35.5427;-197.556
35.2735;-192.679
35.6598;-192.065
34.7641;-192.549
34.5441;-190.499
35.7809;-194.784
41.9968;-197.599
40.5844;-192.673
40.4134;-190.326
34.9536;-192.403
39.2209;-198.651
34.7178;-199.218
38.633;-197.953
39.752;-191.803
34.5382;-192.444
44.0187;-198.422
42.9183;-197.957
43.9968;-198.745
42.7242;-199.459
34.0604;-199.277
39.9577;-190.769
35.6501;-198.196
43.149;-196.083
37.6097;-191.803
39.8131;-194.475
40.8926;-195.474
39.3269;-199.004
37.0617;-192.427
39.7885;-190.078
41.4969;-191.224
34.373;-193.711
42.3512;-192.522
42.7515;-190.746
43.8131;-191.69
34.2171;-175.966
29.3537;-178.331
32.6812;-183.36
25.1511;-176.111
26.8616;-178.503
26.6725;-178.705
27.5498;-177.994
26.6954;-181.712
30.7118;-184.258
30.8924;-182.763
34.0958;-179.893
29.8422;-182.2
25.5139;-177.807
30.3065;-180.285
28.8903;-175.557
32.858;-181.636
24.4134;-180.655
30.3659;-181.551
26.72;-176.668
29.2106;-178.245
27.4307;-180.181
26.2067;-177.879
24.7898;-178.782
31.341;-180.86
30.7575;-178.261
26.2273;-181.529
30.6527;-178.909
27.6649;-177.693
26.4032;-177.596
31.2287;-175.791
26.9538;-178.469
25.2576;-179.676
33.155;-182.395
25.3185;-178.139
27.9971;-183.887
30.3132;-179.233
27.2689;-178.334
27.2649;-177.242
26.2786;-181.704
24.4169;-175.156
27.6959;-176.726
28.7461;-183.118
33.5704;-175.414
31.3719;-177.351
31.239;-183.789
32.1239;-181.162
33.5438;-175.569
26.4166;-176.381
29.8615;-177.063
33.4304;-182.027
33.1209;-175.904
30.1431;-180.019
27.1202;-183.372
29.3051;-176.354
32.8705;-180.363
27.2917;-180.04
31.2229;-183.196
25.7717;-177.724
29.3053;-178.969
31.6236;-176.619
26.6008;-183.218
25.5937;-180.015
27.9855;-183.618
33.7001;-181.752
30.6021;-175.915
32.5624;-176.632
27.7308;-180.039
30.9694;-181.057
26.9702;-178.911
25.1066;-183.488
30.8532;-183.922
27.2638;-181.364
25.2926;-181.686
33.7261;-180.727
27.0357;-179.164
31.9989;-178.413
25.9538;-180.126
30.6378;-176.17
26.4596;-179.823
28.6431;-179.424
28.325;-176.701
27.6413;-182.557
30.7677;-177.706
27.7635;-175.152
25.7419;-176.024
24.4352;-180.892
32.125;-177.167
25.5278;-182.063
31.5912;-176.345
28.8722;-184.508
31.4602;-175.135
29.1201;-182.891
25.3203;-176.348
28.2101;-184.004
30.9523;-181.982
25.6981;-176.909
24.9153;-184.485
32.1898;-180.423
28.8067;-178.079
30.2775;-183.809
13.8139;-164.701
10.9063;-166.381
12.6293;-161.113
13.9608;-168.302
14.0527;-164.743
10.2;-164.038
8.56439;-161.702
17.1008;-169.012
12.6808;-168.304
16.1312;-167.745
11.4354;-167.092
11.306;-161.217
14.4549;-161.851
10.4382;-169.637
14.1231;-162.217
10.9451;-161.639
9.84369;-167.79
8.96081;-163.876
15.6861;-163.254
9.86701;-162.805
11.0201;-165.988
10.1734;-165.66
13.1919;-166.143
13.4175;-168.453
11.6656;-169.854
10.9176;-166.178
10.4679;-162.626
13.3866;-163.503
14.7233;-160.804
14.842;-161.902
14.3224;-166.88
13.1931;-169.94
14.048;-161.561
13.0486;-163.573
11.485;-165.993
15.8825;-162.811
9.39224;-163.222
8.49909;-169.671
9.73965;-163.143
14.8665;-163.81
7.87474;-164.322
10.9159;-169.943
14.4172;-167.384
9.6751;-161.424
14.5369;-166.586
14.3965;-161.21
16.7136;-166.868
9.43488;-168.137
16.1531;-164.965
16.9052;-163.243
11.8087;-168.089
16.5527;-162.939
15.2531;-164.526
10.1947;-160.675
13.3779;-160.734
12.8076;-160.666
17.2548;-164.474
16.0049;-162.004
14.4355;-164.055
17.222;-160.047
16.6066;-166.755
14.2412;-164.108
15.6177;-162.407
10.4913;-162.051
12.5691;-163.956
15.8184;-168.33
16.5937;-161.349
11.9883;-163.356
13.8325;-163.88
13.249;-163.544
13.6537;-168.517
14.8726;-169.67
16.1896;-164.818
8.98996;-164.85
12.967;-165.102
16.007;-169.515
14.24;-166.153
9.3033;-165.479
10.3338;-165.869
8.03805;-165.932
13.6007;-162.824
13.6903;-161.871
12.6371;-165.533
8.45072;-160.048
14.2711;-169.257
10.0895;-164.027
14.1659;-167.802
15.2429;-160.765
12.2491;-165.371
17.3901;-161.494
16.8543;-160.511
11.1992;-162.33
10.0548;-164.633
17.3617;-165.224
16.7067;-165.338
9.70114;-160.327
15.6657;-165.42
16.9113;-162.336
15.4796;-167.424
11.1819;-160.365
-4.21764;-149.392
-7.85185;-148.778
-6.16107;-150.22
-0.596896;-148.461
-3.6967;-152.893
-8.66435;-146.346
-7.7721;-151.264
-3.8352;-148.535
-3.79872;-148.234
-4.1534;-154.411
-7.33586;-149.364
-6.32371;-154.811
-0.5252;-154.909
-2.05526;-148.986
-0.429397;-146.128
-5.28231;-153.269
-1.80981;-150.123
-0.105307;-148.61
-6.83323;-153.447
-6.10184;-146.178
-2.28574;-146.006
-7.03225;-150.242
-8.53886;-145.534
-3.53018;-146.343
-0.516727;-147.813
-6.93928;-153.159
-7.73235;-153.328
-7.99973;-148.739
-7.4866;-153.733
-9.62346;-145.531
-8.56223;-153.392
-3.27667;-150.382
-8.75355;-145.848
-9.05655;-148.858
-4.79781;-151.063
-6.83035;-150.634
-0.638217;-152.559
-7.85503;-149.338
-5.44369;-154.653
-2.2283;-146.861
0.217576;-151.436
-4.52664;-154.643
-3.14421;-152.991
-6.48596;-148.002
-3.295;-146.107
-9.26044;-151.585
-1.72882;-147.333
-2.94291;-148.013
-6.63273;-145.958
-6.78279;-147.475
-7.87149;-146.906
-9.22773;-149.089
-8.18937;-153.985
-8.40042;-152.559
-9.1816;-149.109
-0.307106;-146.104
-0.509926;-154.44
-7.19243;-150.309
-8.07375;-149.13
-4.99858;-149.154
-0.501447;-146.845
-3.93962;-149.735
-7.50977;-147.706
-3.42627;-152.358
-9.59562;-149.618
-6.28666;-145.685
-4.53584;-152.943
-6.69044;-150.99
-3.31078;-148.201
-7.0719;-150.567
-6.4332;-147.968
-2.17004;-152.855
-2.92638;-152.419
-1.31089;-154.838
-3.7545;-146.476
-3.08252;-151.785
-1.28212;-149.732
-7.19984;-152.498
-4.6183;-154.268
-3.64801;-146.102
-1.54881;-149.69
-2.39465;-145.41
-6.1627;-151.56
-9.52349;-154.561
-4.88958;-154.949
-2.6795;-152.071
-4.68803;-146.799
-8.97954;-150.325
-4.92564;-153.09
-9.32818;-145.766
-7.31354;-154.156
-3.64971;-147.886
-0.146471;-154.071
-8.10118;-146.325
-2.1893;-150.241
-9.69232;-147.225
-2.3975;-149.214
-0.536402;-147.563
-1.8857;-154.036
-8.74732;-145.536
-14.4129;-137.607
-15.043;-139.05
-20.7773;-137.228
-14.9017;-130.623
-12.6993;-139.033
-19.0949;-131.547
-17.9452;-133.075
-15.9701;-135.656
-16.5054;-136.76
-21.6977;-138.7
-21.1408;-136.22
-21.3658;-133.401
-16.6858;-131.193
-15.8271;-137.891
-19.3869;-134.711
-14.8283;-130.568
-22.1277;-138.779
-18.5173;-134.851
-17.9838;-137.884
-19.4279;-138.398
-22.456;-135.662
-21.2481;-133.502
-21.6685;-135.381
-14.651;-132.197
-13.4081;-133.153
-21.8836;-131.328
-17.2396;-139.528
-13.2317;-138.229
-18.6304;-138.905
-16.1263;-134.038
-17.1162;-132.997
-14.2861;-135.934
-13.2948;-134.223
-14.6179;-137.783
-18.6915;-136.258
-14.4308;-139.025
-15.0376;-136.127
-14.0176;-130.658
-15.366;-131.685
-17.349;-133.648
-17.4863;-133.753
-15.7919;-134.212
-14.9509;-139.705
-21.1203;-134.003
-20.5514;-138.561
-14.0675;-132.226
-20.6701;-132.647
-19.3805;-133.333
-13.626;-138.944
-17.7126;-138.978
-20.5131;-137.297
-15.9339;-137.123
-20.2912;-130.53
-14.7257;-134.931
-21.0892;-130.637
-16.9003;-137.054
-13.7762;-133.555
-15.7704;-137.672
-14.1848;-133.706
-14.7773;-131.87
-16.6063;-139.715
-14.8727;-133.824
-19.6675;-132.256
-13.7103;-139.232
-20.7205;-138.273
-18.0799;-136.402
-16.0351;-136.213
-19.2532;-138.993
-16.4343;-131.306
-14.4525;-138.958
-18.5226;-132.503
-18.568;-136.332
-16.5139;-137.278
-13.4949;-139.318
-13.698;-135.678
-17.9038;-133.252
-19.586;-135.284
-20.0496;-137.756
-19.4987;-134.233
-15.0159;-138.739
-17.6517;-135.198
-13.9217;-138.075
-19.5786;-138.666
-22.4821;-138.154
-19.6228;-130.992
-16.0054;-131.914
-20.7562;-133.125
-12.9132;-139.553
-21.3807;-132.249
-20.4378;-131.387
-17.1492;-130.058
-17.852;-133.321
-13.5871;-131.715
-18.4577;-132.881
-14.1305;-138.065
-15.7739;-138.453
-19.0384;-136.761
-17.9379;-134.675
-15.3394;-133.596
-17.099;-135.399
-47.4994;-122.313
-44.9747;-118.066
-42.8848;-122.636
-45.9224;-122.808
-45.1516;-119.856
-48.911;-121.565
-41.3221;-124.057
-39.5492;-116.21
-46.5729;-119.787
-45.8232;-123.199
-40.8778;-120.61
-41.5538;-118.169
-48.0123;-121.137
-48.3818;-120.734
-39.7387;-118.996
-40.7248;-123.908
-41.3896;-123.407
-45.4588;-121.868
-44.0923;-120.443
-39.7153;-117.55
-48.5304;-115.412
-48.8849;-124.795
-40.4205;-116.021
-45.2242;-124.603
-47.2171;-123.162
-43.1878;-117.216
-44.8008;-124.264
-44.8163;-120.91
-41.0604;-118.982
-47.3934;-119.367
-42.6901;-116.968
-39.7902;-124.287
-45.5706;-120.248
-40.1071;-121.418
-48.3832;-115.831
-40.6596;-115.991
-40.2016;-123.082
-48.5191;-115.713
-39.7317;-116.791
-49.3684;-119.912
-46.5438;-123.118
-46.7968;-118.725
-49.0507;-117.513
-45.9106;-117.782
-46.5642;-116.28
-42.6631;-119.473
-43.1751;-115.423
-45.0869;-118.622
-39.4553;-124.914
-40.1615;-121.363
-46.7694;-124.007
-46.5051;-116.99
-42.1187;-123.14
-49.3461;-121.193
-40.5206;-118.019
-40.5522;-124.883
-43.0237;-123.233
-40.1619;-123.518
-40.7152;-118.243
-43.9385;-122.241
-41.1295;-123.448
-48.2866;-122.77
-40.8078;-120.473
-44.8032;-119.542
-40.3206;-116.432
-39.8546;-121.133
-47.5387;-123.259
-45.814;-122.528
-43.1369;-115.826
-43.2608;-121.329
-45.6277;-119.826
-42.4748;-119.982
-42.915;-124.82
-42.4788;-118.805
-40.4621;-119.799
-42.6625;-122.586
-44.7718;-117.76
-47.6491;-117.118
-46.0755;-121.748
-47.5957;-118.621
-49.1699;-122.565
-45.239;-123.619
-45.5629;-122.877
-48.119;-117.222
-47.9662;-124.868
-44.1102;-117.548
-46.9458;-119.763
-43.9983;-122.754
-40.9746;-116.029
-45.2439;-122.646
-44.6472;-117.605
-44.7813;-124.075
-40.6084;-115.588
-46.7515;-118.599
-46.6356;-122.853
-44.833;-120.516
-43.5503;-121.974
-44.2672;-116.241
-42.8781;-115.282
-39.5659;-118.555
35.0259;-106.103
36.2372;-106.775
38.5125;-102.598
35.7135;-104.663
39.3794;-109.004
35.6354;-106.762
37.7426;-109.566
39.1116;-104.823
37.712;-105.727
36.9236;-108.612
35.8417;-107.674
38.0616;-109.921
35.0979;-105.27
31.1386;-102.091
37.6296;-108.328
35.4397;-100.745
32.3502;-107.086
30.1867;-108.064
37.1433;-108.878
31.9884;-103.841
39.2671;-103.218
37.086;-102.117
32.9305;-102.732
31.412;-103.544
37.7155;-109.099
33.0975;-101.406
38.5438;-106.184
38.4171;-108.582
39.1978;-106.099
35.4435;-100.185
38.9402;-102.914
29.8711;-108.858
32.9482;-108.451
32.5414;-109.683
36.3461;-109.65
37.0026;-105.211
32.5419;-104.128
33.011;-105.653
30.6744;-104.269
36.5031;-105.318
33.1468;-101.351
32.3353;-100.141
31.148;-108.051
35.7206;-108.989
30.6964;-109.395
37.5613;-108.577
32.4355;-100.105
31.3153;-102.309
37.8783;-104.357
35.8635;-105.884
38.7748;-105.517
30.2258;-106.875
37.3429;-108.424
37.1774;-106.504
38.0481;-101.724
36.7955;-106.061
33.6693;-108.546
33.2738;-100.61
30.2715;-104.924
35.5513;-100.747
30.5467;-108.773
30.9926;-106.628
30.9333;-106.759
38.7541;-107.433
36.5528;-100.93
33.4243;-105.124
37.8719;-104.414
37.0326;-106.091
37.2751;-104.526
33.6203;-105.531
38.2786;-104.418
36.9063;-109.325
29.9348;-107.793
37.1535;-109.561
39.5627;-109.535
31.5624;-107.036
36.2058;-109.632
33.4797;-107.186
35.2511;-102.602
36.339;-107.507
37.2396;-107.937
37.5198;-109.978
33.8016;-104.63
30.7145;-105.189
39.1506;-108.665
36.788;-105.406
35.1389;-102.312
39.7654;-106.047
34.2627;-104.667
35.6682;-102.822
30.0121;-105.916
34.3229;-102.511
30.1738;-103.523
33.7453;-101.939
30.4247;-104.316
37.6172;-109.657
30.2357;-102.077
33.164;-104.604
30.0777;-105.704
35.5022;-105.863
47.4199;-86.269
48.8701;-87.8249
51.9408;-88.4978
45.7651;-85.6682
50.0002;-90.7523
49.2601;-90.0215
54.3016;-92.3812
47.7929;-94.134
49.6114;-87.5077
52.9172;-86.3941
51.2233;-89.9163
50.3197;-89.0305
54.1338;-93.2517
46.8262;-85.255
50.2474;-91.5997
47.002;-93.5575
53.4884;-87.0743
49.2987;-88.8695
50.333;-89.3125
54.8061;-89.6778
45.1715;-94.4084
48.0813;-90.6755
50.0613;-85.2685
52.0946;-88.8675
49.6092;-85.0689
49.8856;-89.7298
46.1105;-93.9091
47.71;-94.5363
45.0795;-94.4974
48.7737;-90.2054
51.1078;-89.4148
48.3817;-88.9659
47.0354;-90.1454
45.413;-87.0612
48.1318;-87.3732
53.0892;-94.5226
49.6728;-91.4384
48.1639;-93.5711
52.4322;-85.0076
54.7943;-94.4831
50.6578;-92.7002
48.2615;-90.0617
50.2728;-87.9733
52.4002;-88.7701
45.8952;-89.3894
46.0667;-93.5678
52.3372;-87.7386
46.9869;-90.2933
47.5163;-85.3691
52.1285;-92.3418
48.0064;-89.0935
54.3389;-89.5239
51.7758;-87.0625
52.8008;-92.2388
48.1489;-90.5336
51.6371;-87.1465
47.6626;-85.9349
50.9626;-94.843
51.2577;-86.8063
48.6752;-91.3789
49.9242;-87.5887
49.5436;-89.9998
54.5777;-92.4803
47.0215;-88.2112
54.3178;-92.6475
53.1298;-85.5916
49.7553;-92.4174
45.3909;-87.2729
45.3591;-93.2105
51.1268;-86.55
51.1743;-91.2337
47.7022;-91.9778
48.0501;-85.9047
52.1598;-86.0768
47.4151;-85.4339
51.8482;-93.9066
50.9644;-87.4023
44.9883;-93.3498
53.3098;-89.1995
53.0238;-92.7319
46.5473;-87.1141
45.3393;-88.5881
49.0098;-88.439
53.2213;-94.0114
54.3094;-90.3728
53.2643;-90.3935
52.4995;-89.2579
49.7082;-93.7751
45.0189;-94.192
45.2449;-92.8735
48.0906;-92.3076
45.1609;-87.6485
53.8724;-85.6866
49.9847;-94.5924
47.5465;-87.5594
50.1973;-91.7332
54.5495;-90.6478
45.784;-89.2051
51.6543;-91.1824
53.3156;-85.7364
19.0597;-76.1299
13.7202;-78.0357
19.0231;-71.9368
20.4327;-77.6932
14.9022;-71.0718
14.3694;-79.0963
13.4152;-79.9677
21.2553;-78.5386
18.7966;-78.3987
16.4984;-73.5255
14.0224;-70.158
21.7421;-71.3708
21.7637;-72.4041
16.6008;-76.6617
14.0045;-71.194
14.8975;-79.3984
14.7872;-71.3785
18.9061;-75.8251
18.7031;-70.6325
20.5171;-75.104
18.0211;-70.8375
21.4162;-79.5563
14.1264;-73.0066
20.8162;-71.7712
16.9247;-71.5198
20.5437;-77.1282
13.7224;-73.4958
16.3215;-72.1571
13.4027;-78.9567
22.0707;-71.5205
21.3025;-77.0356
13.8073;-77.4747
18.9216;-78.3531
13.2359;-71.7294
15.3879;-76.8181
14.5658;-70.6899
21.9752;-71.0338
18.181;-78.4608
21.9894;-78.3412
12.3605;-75.4456
19.6476;-75.5288
13.1968;-71.5387
18.5256;-71.0728
22.1919;-74.9244
15.7765;-72.5145
12.6713;-70.1802
14.5665;-77.3638
16.5045;-77.9642
12.5277;-70.9546
14.4487;-74.7025
16.8291;-76.5271
14.6605;-75.4283
18.3323;-75.6385
18.2417;-71.6013
15.1745;-74.1211
12.5715;-73.8406
16.8421;-79.6207
21.5279;-78.6744
18.6225;-79.0751
20.6318;-70.7229
21.3183;-70.0438
14.8138;-71.1397
13.1175;-78.558
12.7088;-73.1245
14.3944;-78.7976
16.8967;-77.2853
19.5078;-73.2193
13.3636;-72.8857
17.7344;-76.6027
21.4976;-72.8375
15.5432;-71.5339
21.0668;-70.3736
13.1733;-72.0575
21.0888;-71.848
19.6504;-72.6469
19.5307;-72.7222
18.3595;-73.4741
20.1893;-70.0984
18.9985;-72.9658
20.458;-71.5447
13.3913;-71.0499
17.9522;-77.0881
12.2476;-71.5437
14.0751;-73.1271
16.2568;-74.4608
16.2268;-78.8701
12.9777;-72.6428
17.5211;-77.1492
13.2242;-78.2918
21.2827;-75.8329
13.6662;-71.5682
17.1791;-73.6295
18.4936;-72.4171
16.8385;-77.0744
13.6022;-76.9507
14.2208;-77.1464
17.9869;-77.4492
13.2285;-72.2698
16.8245;-74.2082
13.5524;-77.1393
41.7214;-61.0094
41.1319;-59.0043
37.6804;-56.8128
45.5749;-58.5449
41.9013;-59.5375
43.2923;-57.3783
38.9644;-63.1131
44.5441;-60.5098
45.4923;-59.4951
43.2708;-63.7917
39.5927;-63.0391
44.1114;-55.5635
36.8286;-64.0621
41.926;-61.4818
41.2342;-61.6956
43.68;-60.8205
36.5602;-64.8144
44.7577;-62.9581
44.8819;-63.5294
43.3181;-57.4374
41.5694;-60.9867
42.2851;-61.1596
44.7156;-57.2363
39.6537;-60.9408
41.6525;-57.5621
45.7838;-64.8456
45.976;-56.5248
45.7981;-57.8748
37.0284;-64.9654
39.7239;-60.0459
45.5186;-59.5074
42.0632;-64.3661
39.0608;-55.6913
37.1644;-60.9491
37.9985;-63.8273
41.571;-57.2875
37.9379;-58.2021
40.9466;-63.9139
41.5303;-55.1165
43.7064;-57.1697
44.3697;-64.5872
45.273;-58.2798
40.2304;-57.4243
43.9953;-56.6989
39.6402;-60.5112
46.3664;-64.0508
37.9682;-62.6113
38.0825;-59.3404
46.0955;-60.7411
41.8167;-62.5231
36.5743;-63.676
44.5069;-64.3824
38.0887;-63.2578
38.0107;-62.3165
36.8988;-58.1511
43.6467;-56.0529
42.0523;-56.5014
42.4593;-58.8503
40.8358;-55.4873
40.3865;-61.3154
41.0188;-57.294
36.4797;-61.0171
46.0275;-58.7831
36.8609;-63.2078
40.654;-55.647
37.062;-59.0925
42.9101;-60.5416
42.5856;-56.2012
37.8674;-56.7712
41.4628;-57.1737
43.1584;-63.0038
36.8797;-62.6606
44.8741;-62.5593
38.3384;-58.431
36.6386;-62.0601
37.0309;-59.0452
46.3227;-60.1127
37.4893;-64.2594
38.9178;-55.4198
45.3182;-63.4198
43.8727;-58.1982
37.6452;-55.3899
44.794;-60.9872
38.6266;-57.5393
41.6721;-55.1087
38.2725;-57.6806
46.0438;-62.9395
40.8862;-62.6178
45.3362;-56.8521
37.4729;-58.5455
38.7944;-55.7952
40.4771;-63.2663
38.8593;-62.6529
38.3123;-59.8036
43.1616;-59.9929
38.1939;-64.1395
36.8557;-60.7358
44.6621;-61.931
36.9148;-56.1204
45.156;-64.4813
8.82672;-42.1619
15.6651;-42.1227
10.5467;-46.9592
10.1602;-44.3552
14.9009;-41.167
9.41058;-48.8032
13.4571;-41.5336
9.10895;-46.4105
13.685;-49.5147
15.4301;-44.0522
15.9249;-43.6227
15.0162;-48.4739
17.9714;-49.1743
9.52366;-44.2724
12.6668;-49.6782
16.3281;-42.8277
13.2178;-44.8429
16.3661;-44.3432
9.46987;-42.572
14.4292;-49.8101
9.55489;-41.9657
14.669;-42.4966
9.26107;-43.3244
15.3291;-42.5585
11.5575;-43.3903
11.1552;-45.5772
14.1171;-48.8541
10.1398;-40.165
13.7308;-44.248
14.2421;-46.6729
8.66755;-49.9388
13.3866;-45.7662
18.0588;-44.4511
11.1451;-46.5838
11.7743;-48.8078
17.3948;-40.7621
14.9095;-45.0072
9.83659;-44.2727
11.3371;-42.1659
12.612;-41.1707
11.4203;-43.4419
15.8723;-42.5692
15.434;-40.7991
13.1212;-40.3243
11.171;-47.1717
11.0578;-48.9732
13.4288;-46.4979
17.2192;-41.8921
9.69235;-44.8488
14.5117;-47.9721
9.43401;-44.8698
8.29123;-44.43
9.46559;-41.9929
14.0094;-48.2086
8.78888;-45.5338
9.19256;-49.715
15.884;-46.1273
11.2419;-41.2716
16.5723;-45.0185
15.9781;-41.9734
17.2217;-48.5932
13.0771;-49.3006
16.9756;-45.6859
17.6335;-46.0401
14.156;-49.6685
13.6299;-44.1913
9.54696;-42.7465
13.4288;-44.4153
15.5443;-47.3239
15.3105;-48.8982
9.55505;-42.0032
10.0377;-41.8333
15.0633;-40.8974
12.2524;-45.0568
11.138;-44.7008
14.8742;-48.106
10.7617;-47.9767
14.5056;-48.3851
13.743;-48.5992
9.9005;-44.1974
9.77955;-48.4374
16.9843;-42.806
10.9469;-47.0099
13.8344;-45.9233
13.3468;-49.8452
16.3198;-47.1915
9.1434;-43.4346
13.8362;-49.9789
13.1325;-42.1297
11.3377;-40.2478
9.81438;-42.0659
18.1256;-40.1245
9.65862;-45.7604
13.8086;-43.7053
10.2655;-42.9348
16.796;-42.6273
12.7349;-46.2914
14.8669;-42.5561
9.68884;-42.6546
15.6685;-47.6351
22.6437;-29.8266
23.1404;-31.7354
25.9244;-29.327
17.6292;-30.9811
24.1801;-26.3153
17.3227;-26.4286
25.5206;-27.9362
25.546;-30.4295
17.2028;-30.1765
23.9127;-29.3806
21.239;-27.4164
19.1422;-34.3705
24.32;-33.3089
20.2035;-25.5042
23.9879;-25.3069
21.8583;-25.0891
20.1673;-32.3521
25.3128;-33.9849
22.0258;-32.8919
17.7846;-26.0417
24.5215;-32.7778
26.2779;-33.8763
22.6861;-28.9415
17.8738;-27.1598
20.4515;-29.0948
20.4806;-27.1972
25.4241;-27.2932
26.3897;-29.3609
22.1267;-29.2395
22.4454;-32.3904
19.5124;-32.8691
21.7707;-34.68
18.3269;-29.304
24.7959;-31.9002
19.0499;-28.6309
25.5831;-26.4031
26.7124;-25.4122
22.6381;-27.1227
22.7094;-29.5852
18.3118;-28.4717
21.323;-25.8228
23.8758;-30.1912
17.4398;-32.2366
25.5157;-28.7181
25.8834;-29.4171
24.7056;-31.0225
21.2893;-33.5879
24.0999;-32.5073
22.5843;-29.3674
18.9935;-30.0879
20.5008;-27.3494
24.2302;-34.407
25.4621;-31.7704
25.6362;-32.1153
26.4048;-30.8121
20.3569;-25.0356
21.7651;-31.2559
23.4994;-34.751
23.5228;-29.7788
17.7959;-29.9685
26.0008;-29.5775
23.8264;-26.4821
18.0024;-31.6935
25.9309;-31.0574
25.8466;-28.397
21.2454;-34.0592
18.5256;-32.6363
22.5852;-33.508
21.3685;-34.9959
21.1837;-30.7622
21.194;-31.2103
24.5256;-27.4431
24.7978;-26.0246
21.1884;-30.9586
26.0647;-30.6631
26.7512;-29.9993
20.5103;-26.9182
18.3801;-28.4061
17.5283;-30.471
18.1239;-34.6726
18.26;-25.6088
18.7468;-29.6143
23.8695;-32.1981
19.7978;-27.6517
18.5779;-33.7457
22.0358;-28.0022
21.5466;-29.2117
21.7555;-32.4222
23.611;-32.6393
23.6894;-26.0397
20.9527;-29.308
20.7656;-28.5431
20.0426;-27.5206
19.0003;-29.838
22.4812;-31.4127
19.9703;-31.8595
25.5181;-28.2425
26.5512;-30.2666
19.0736;-29.5961
23.65;-32.6347
-11.6195;-10.6369
-9.40381;-10.5439
-9.10197;-15.72
-12.4226;-13.7214
-10.3455;-16.82
-6.18081;-13.4089
-12.9568;-10.5669
-10.8378;-15.3797
-6.69292;-14.4731
-12.3054;-13.9288
-4.27201;-10.2307
-5.02615;-12.2262
-5.98854;-16.2168
-7.45681;-16.3005
-12.964;-10.3015
-4.26008;-10.4673
-4.3329;-17.9401
-6.98184;-17.0204
-4.06353;-16.7914
-6.93315;-12.761
-9.49159;-17.7656
-11.6542;-16.4705
-5.1719;-15.805
-3.59978;-15.8485
-13.099;-15.2214
-8.77375;-19.2618
-4.80968;-10.7276
-10.2661;-17.1565
-6.77873;-14.1548
-7.77801;-11.0795
-4.86847;-13.0993
-4.36117;-15.3946
-5.73681;-12.5579
-12.6711;-14.6996
-10.7823;-13.1569
-4.24422;-12.9608
-12.753;-13.6304
-12.7571;-19.2549
-8.42516;-11.2815
-9.82459;-19.7135
-12.2969;-14.8807
-8.92999;-11.9549
-12.4331;-10.4632
-7.93967;-12.5527
-6.95389;-12.5684
-8.98942;-19.0742
-7.79061;-15.1789
-11.0586;-16.7071
-4.72843;-16.884
-3.3626;-17.0862
-3.36874;-18.8673
-5.8194;-10.9634
-3.54005;-19.4783
-4.08154;-11.9331
-4.96824;-15.3218
-3.5242;-17.2627
-12.5393;-10.6217
-4.40663;-15.8108
-11.6852;-18.329
-4.21905;-15.7029
-8.09882;-11.9956
-10.4963;-16.565
-6.5939;-19.246
-9.45169;-14.9114
-5.31933;-14.6789
-6.86787;-16.1708
-10.4559;-12.0446
-4.84467;-16.0438
-11.2986;-17.3526
-5.99604;-12.2828
-12.8672;-19.6234
-3.56688;-12.8768
-12.0093;-18.7631
-10.4137;-11.3301
-10.3547;-17.051
-12.3683;-17.9893
-7.87608;-11.81
-4.37775;-16.2211
-4.45423;-17.8265
-5.82715;-17.186
-6.67856;-13.1301
-8.49647;-16.0516
-5.41714;-10.4911
-11.1653;-16.6977
-12.3022;-10.0723
-13.0175;-10.5179
-6.71646;-18.5259
-10.6107;-19.9409
-4.59269;-12.0823
-12.455;-14.381
-5.69204;-18.3039
-3.43566;-18.1799
-7.72272;-16.9247
-8.07294;-11.17
-11.6777;-15.5335
-11.9853;-17.2566
-6.62995;-11.7128
-5.52558;-13.8384
-3.85779;-15.4036
-8.79768;-10.0475
-40.3371;4.43459
-39.1256;-3.04247
-40.4968;-0.112597
-41.549;-1.04246
-40.3411;-4.71243
-37.2481;0.312539
-39.9668;1.64438
-42.922;-4.00742
-38.924;-0.971358
-39.4927;1.70987
-37.1192;3.98471
-39.4889;-1.0401
-43.4094;-0.792128
-41.4936;-4.72716
-40.3685;-3.29143
-44.0222;-0.844739
-39.0526;4.62518
-40.6528;2.183
-44.0249;-4.21865
-44.0965;3.12902
-41.7238;0.964803
-42.5562;3.98617
-35.1867;3.64016
-42.4966;-0.147434
-43.603;1.22011
-39.9606;3.34149
-42.864;4.60868
-41.3488;-4.1187
-44.0113;-0.942562
-39.3994;2.48836
-43.5218;0.951015
-39.5892;1.90917
-41.0732;2.75641
-36.6276;-4.91123
-36.9476;0.232713
-43.9679;4.60668
-36.5726;-3.34066
-44.8659;-1.1933
-36.5061;3.57159
-40.3737;-2.0317
-43.8556;-4.7783
-35.335;4.99652
-44.2876;-1.38881
-37.4968;-1.35305
-44.0301;-2.96804
-37.1824;-1.56536
-44.8216;-2.22108
-44.6301;-1.44084
-41.5175;-0.564029
-35.4967;4.0731
-36.4856;-3.13428
-41.6403;-4.1338
-40.4925;2.27262
-39.3212;-1.17543
-38.3725;-1.66783
-41.6115;-4.36409
-44.533;3.10266
-43.4516;-1.61574
-38.1342;-3.48975
-41.6232;4.38247
-42.3483;3.16651
-44.22;-3.47482
-40.0811;-1.83909
-37.5685;-3.51923
-44.6115;3.73228
-44.5674;2.26557
-37.0336;4.23364
-38.6591;-0.876937
-37.2178;-2.19533
-39.0286;-2.64953
-42.179;-0.259503
-42.3222;4.6907
-42.0904;-1.38119
-40.0363;-0.44299
-41.2259;-4.89383
-36.8927;3.67127
-44.969;1.75659
-35.2479;4.21812
-44.4665;0.280787
-41.1523;2.51439
-40.3854;-3.74725
-44.679;-0.388938
-36.4313;-2.08827
-39.449;1.99265
-35.8223;1.68175
-43.7431;-3.14677
-43.6215;-2.67049
-39.2171;-0.734589
-36.343;-0.381101
-40.4403;-3.92262
-35.4167;-2.2381
-35.6469;-2.00225
-42.9495;4.9451
-39.9395;4.43601
-38.215;-2.08525
-40.9979;4.23895
-41.3154;-3.26964
-40.5233;-0.346106
-43.5189;-2.41587
-35.8995;-4.64152
-39.4152;12.2117
-36.3477;13.3192
-30.8359;14.9535
-36.3274;18.3745
-37.0038;10.3449
-40.0098;16.5379
-34.047;16.0974
-31.7901;10.0386
-34.8389;15.4924
-37.6606;11.228
-34.7079;14.5034
-31.7499;14.1731
-31.2882;10.0494
-38.4074;10.9376
-39.8999;19.1737
-38.718;12.6856
-34.0986;10.8916
-34.2582;15.141
-36.5878;15.2722
-34.4862;19.6211
-33.9444;16.6152
-37.3908;15.7106
-34.3541;12.2154
-32.3956;11.0258
-37.8496;11.0138
-34.5862;10.1505
-35.7797;17.6492
-32.4047;13.8707
-35.2951;13.1388
-37.7908;19.3945
-38.0232;15.0117
-34.2;13.6979
-31.2644;18.0849
-36.7462;11.7485
-38.7337;12.3545
-31.1337;18.9742
-35.4185;17.5286
-30.3594;11.6823
-37.3953;10.4341
-38.6555;17.4517
-32.5011;14.9618
-37.4924;16.9651
-39.2676;11.9259
-35.0387;10.3096
-30.3992;15.6441
-39.4476;17.3772
-39.0282;11.7843
-30.2342;16.5591
-31.7957;19.9141
-37.8347;13.2263
-37.9028;19.6773
-32.8975;11.2384
-37.1827;16.8854
-32.7838;16.9499
-35.7018;15.6287
-39.5129;18.7675
-34.3708;12.0038
-36.1737;13.2015
-36.5923;16.5684
-37.8909;18.9944
-33.7318;13.2153
-35.1038;12.8683
-30.676;17.4468
-32.7425;14.8687
-32.0083;17.735
-32.6911;19.6296
-39.2354;10.2956
-32.9224;14.6182
-38.5354;13.7886
-30.6861;14.5006
-36.8353;15.9696
-32.13;10.0077
-36.8942;19.0007
-34.5343;11.903
-39.206;16.7202
-30.1679;17.7815
-39.4536;17.269
-35.3876;14.935
-30.2996;10.0772
-32.2912;12.0767
-38.3971;17.8988
-31.909;15.2245
-30.2607;12.5742
-33.7405;15.3754
-30.2274;11.4107
-32.7231;15.7801
-34.3156;13.144
-37.9588;15.3536
-32.8467;18.9969
-34.3863;17.7137
-34.6082;18.154
-34.6803;15.6526
-39.5158;16.145
-33.8813;10.1388
-37.8879;10.3914
-31.8132;14.0343
-30.8446;13.9218
-33.6073;16.4845
-38.2435;19.1014
-39.5913;12.8588
-24.7498;33.6389
-28.2154;29.8798
-25.6177;28.2459
-32.1395;28.4235
-23.5015;29.738
-32.4089;33.6566
-28.5625;29.7932
-27.2613;31.3782
-30.0418;29.2184
-26.2082;30.7721
-28.5798;31.6346
-26.7487;25.3557
-25.7904;25.5467
-30.2355;29.9948
-27.1352;34.7106
-24.2926;29.1424
-23.6199;28.3992
-25.997;27.7761
-26.4424;31.0465
-31.8575;32.1477
-26.8379;30.3403
-32.5087;26.0178
-25.2461;34.8838
-28.5399;30.5141
-31.3558;34.9963
-26.0112;25.5361
-31.7502;30.3485
-26.7469;27.5243
-25.123;32.7436
-25.1879;33.3018
-30.1978;28.026
-26.2169;30.8036
-24.0623;26.4664
-25.1291;28.0703
-32.4241;29.7794
-32.5224;33.2975
-23.3267;31.0222
-26.7361;25.2531
-26.8749;31.7114
-25.9344;25.0082
-32.0977;32.0535
-30.2401;28.3386
-26.7792;26.4362
-23.4623;33.2972
-26.0431;28.382
-26.2341;31.6339
-30.2045;34.0433
-32.1324;27.8332
-26.7385;26.0174
-26.8453;33.0226
-26.3219;31.1215
-30.4984;30.9165
-26.4725;30.6355
-30.2952;33.0498
-24.5841;26.9368
-23.6518;34.0545
-30.249;33.6024
-32.6035;26.3922
-22.9527;33.256
-31.0041;34.2184
-26.7898;31.2884
-27.3104;33.046
-31.7629;33.2899
-23.3349;30.8413
-28.7781;31.7827
-29.7379;30.104
-31.6216;25.1841
-26.8225;30.048
-29.5444;32.19
-23.5153;33.1665
-25.4211;26.1557
-22.884;33.1171
-23.1328;34.6141
-24.7721;34.7967
-23.6271;34.1987
-27.155;34.508
-25.0881;29.8673
-29.4849;25.8187
-25.982;33.4331
-27.4263;27.4644
-25.0736;25.524
-31.934;33.1201
-29.4741;33.5889
-26.8631;31.5277
-27.948;31.2657
-25.2207;29.9058
-29.6192;26.9151
-31.1129;32.1795
-25.6659;27.5322
-30.9112;34.3992
-23.7349;30.9912
-31.7836;32.218
-24.6054;31.4611
-27.7478;29.0157
-26.1619;29.6968
-27.4213;25.1101
-24.412;29.0486
-30.0045;30.9288
-30.1856;26.3981
-24.9782;33.4166
26.5918;43.3224
27.8517;49.0658
22.1014;42.2648
30.7474;48.8775
22.1148;49.9941
30.4078;45.2322
27.5972;47.8263
27.3695;45.3624
21.7631;40.1064
28.0931;40.5598
27.287;40.3667
30.1033;40.6352
24.7793;41.7094
25.6724;49.995
29.1653;41.6894
26.5182;41.3165
21.8888;42.7442
26.5154;41.3571
21.741;40.9772
22.4778;44.2499
30.9886;40.8429
30.1757;49.8726
26.7415;45.5728
27.1857;44.5323
26.5985;45.4917
27.3649;42.2658
24.4075;40.8726
24.0884;44.4553
25.9568;46.1739
29.3697;46.7478
29.5709;42.1092
26.3598;42.875
25.7386;48.4467
30.9303;49.8624
25.6188;44.4666
26.816;40.3952
21.7743;43.5944
30.6737;43.9787
30.0175;45.5029
22.5011;44.8464
28.6187;43.603
25.9821;46.8531
22.8149;40.0133
27.6936;47.0576
25.3119;45.7588
29.3744;44.0504
28.4319;41.8698
21.823;42.7213
24.0902;41.1575
27.1306;49.7404
21.6421;46.696
21.7969;40.9337
26.4189;40.4034
27.4128;49.4576
25.8105;43.4234
28.5329;46.901
25.2605;41.4162
22.936;41.5021
30.0661;45.0625
22.3277;47.6166
23.1735;42.3651
25.7414;48.6892
22.917;48.5924
31.2564;44.5514
25.7983;43.9942
22.1966;45.3741
27.8142;44.4274
26.3373;40.9806
21.9446;41.2201
26.15;40.7372
29.1446;44.7422
27.6649;41.67
24.6785;41.3922
27.9611;47.5879
26.711;41.7317
25.6033;47.2759
27.4715;46.8715
26.9704;48.3318
24.3897;47.3756
22.8762;45.2139
22.0944;47.1751
23.109;42.0599
24.547;46.8957
29.6223;46.4333
28.6769;43.4787
29.7273;42.7593
25.9358;44.8086
27.7072;44.3793
23.4737;47.6014
30.8396;42.6554
31.4377;47.1717
25.5497;43.43
23.2683;45.8963
24.7783;49.5071
26.2275;44.6451
23.3266;44.6416
28.208;45.3089
23.7111;43.4226
31.3624;49.742
24.7272;40.3204
21.7056;58.0797
27.7731;56.835
28.2998;60.8208
28.0521;60.1104
24.7076;55.6911
20.8865;59.9597
29.267;62.8735
29.8993;61.5187
30.0546;63.5101
23.4951;59.2803
26.3645;59.4321
21.3977;63.54
21.0087;64.5231
29.6431;55.8756
24.3604;56.065
24.4087;61.4054
28.5045;60.5379
21.6228;56.6537
27.0281;61.2762
27.2314;64.1468
24.3706;56.2076
29.3451;62.5897
24.3724;58.1094
21.8836;63.7163
23.2607;58.8989
28.5951;59.8506
23.6547;64.0971
28.8842;64.4646
20.6043;59.1352
25.4642;62.9992
24.6687;59.4366
30.2386;64.3448
21.2625;57.645
29.1852;56.3333
20.7441;62.7625
29.2342;60.8885
23.7422;59.5865
27.9601;63.0511
27.0315;62.5865
21.7495;64.3155
24.4302;64.7641
29.1252;64.8164
29.5451;62.5567
21.9559;62.4813
25.7446;64.6213
24.3219;61.8919
26.5008;64.8851
22.7941;59.0324
25.6297;62.2352
25.2618;56.4512
27.6038;60.8457
20.6963;58.9678
22.2831;55.8178
28.6684;63.1282
27.7078;63.7864
28.8146;64.8897
29.9702;56.6098
29.4306;62.4117
25.1571;63.9871
28.8724;55.8583
28.0143;55.3735
20.5226;57.6662
26.9627;58.987
21.4862;57.7886
24.5039;57.0642
28.174;61.2199
20.4518;56.5795
22.6614;63.3421
26.7344;57.2067
21.2572;55.8017
20.9555;58.9141
25.7879;64.5437
27.2194;55.3975
29.6486;59.6904
25.8127;56.8483
22.4859;62.9929
20.9232;58.2989
27.55;57.4803
25.533;62.3577
29.686;63.5081
24.992;64.5087
21.3523;62.3318
25.938;59.9157
27.3865;58.4855
24.5513;57.1442
26.3224;63.1156
27.9234;59.9786
25.6401;56.5821
26.5366;59.6146
26.727;59.7606
23.0176;56.8212
25.3842;63.6848
21.4292;58.4126
21.0344;57.406
21.1781;61.434
26.2068;55.1922
27.788;60.642
20.8218;62.031
20.7806;58.1978
25.6061;62.6801
-0.562545;75.7957
1.49213;79.7823
3.19547;72.9825
7.29209;78.0696
2.56971;79.919
0.709609;71.0761
4.23333;73.2173
2.41954;76.0851
4.89251;78.6022
7.55332;70.8164
4.79627;77.0476
2.60864;75.1582
3.75301;73.7901
2.34374;77.7694
1.14853;73.396
7.22888;79.1103
6.92975;74.5117
5.53134;72.6468
-1.24648;74.051
2.00707;76.7492
5.86245;75.249
6.50344;76.6424
0.764658;74.0215
0.660828;72.8487
1.70228;79.5829
4.66762;72.1399
5.33522;70.4243
2.25154;71.202
7.00848;73.014
4.44713;78.521
5.66849;72.0828
4.63164;75.6018
6.28565;76.524
-1.38791;74.0887
-1.12494;78.9649
2.25103;74.5449
-0.775534;78.6633
0.721921;72.6802
3.56609;73.9149
1.53493;75.3085
5.48554;79.1941
7.65555;70.1283
-0.632566;74.7465
5.79762;73.8328
0.391006;70.3017
0.421571;74.1705
7.8094;79.9853
4.54636;78.979
1.10484;78.0208
5.02285;77.0842
-0.333755;73.9057
0.606046;71.1996
1.91699;72.8165
4.76847;75.2537
-1.40065;79.4088
6.64008;70.2292
-1.60541;78.0106
0.794282;78.2214
0.0913643;71.6878
0.0265728;70.5177
2.72529;74.4081
2.4305;74.3739
1.38999;74.4604
0.518371;70.9026
6.02395;76.4206
-1.63663;79.467
-1.29626;79.616
0.469547;72.8952
6.18602;74.5465
1.99244;79.1638
7.43006;78.7111
4.7589;72.5583
-1.1832;79.7504
-0.524702;79.4789
8.03372;72.8339
5.27917;73.4276
5.83865;74.6848
7.18234;71.6354
0.575173;71.1544
5.61212;71.6265
-0.869432;70.5249
-1.82204;77.9012
-1.16646;71.7601
4.34367;72.5733
-0.225837;78.9453
5.69357;70.2619
0.857279;71.13
-1.0825;74.3782
1.89429;73.5998
4.47088;72.3186
3.7833;73.8538
6.57567;73.6758
3.34836;73.5477
2.73924;77.6838
7.34736;77.8493
6.4113;72.2771
-1.78452;70.4037
0.200869;78.515
-0.874597;70.9748
7.95722;78.4703
-14.1702;93.7322
-20.1944;88.9553
-16.9111;86.9548
-15.9348;90.1522
-20.1608;92.1542
-18.8464;94.6657
-13.5425;90.2617
-21.1738;91.4481
-20.5965;90.888
-16.5485;93.4223
-14.9503;88.4273
-18.1411;90.602
-13.9811;90.3114
-15.347;89.5805
-17.2462;91.236
-16.7786;94.225
-18.5664;87.0771
-17.7149;91.5205
-20.0741;93.016
-16.5765;94.8439
-12.2372;88.2586
-13.2265;93.0707
-17.228;92.7139
-18.1448;94.0933
-14.2312;90.669
-12.6504;93.8002
-17.3446;89.312
-12.1234;87.7021
-14.4642;87.1679
-13.3429;91.0231
-16.4986;86.7831
-17.8865;88.3721
-11.8542;93.4285
-15.3022;92.8922
-14.0107;86.5653
-16.9229;86.6148
-12.0613;92.2456
-16.7873;88.3442
-19.3093;89.2043
-11.8734;93.5614
-14.3852;94.953
-17.4818;93.9697
-20.075;86.7638
-17.8151;88.8884
-11.8353;93.9544
-21.0093;87.3356
-16.0391;90.1597
-18.1585;89.5978
-19.2568;90.6002
-14.5813;85.0328
-20.0991;85.2259
-14.2752;86.9893
-16.4133;86.3331
-16.2093;87.4311
-20.7543;92.7709
-14.0229;90.4107
-17.3663;93.3541
-21.6289;86.9889
-15.8695;91.0522
-16.7402;89.0496
-15.3616;90.7888
-20.7983;90.7441
-21.4049;87.0928
-14.0538;89.5367
-17.1772;87.8317
-18.6891;89.8585
-14.8989;91.2172
-14.1964;85.5293
-18.7864;87.1813
-11.7945;88.0878
-13.2483;88.9528
-19.4399;92.6762
-12.0817;87.879
-12.8156;87.4248
-15.2724;90.5423
-20.4157;88.9378
-12.0649;87.8595
-16.7945;87.2795
-14.9305;85.0237
-18.8913;87.6452
-14.243;86.3858
-14.1438;90.9131
-15.3044;89.3516
-15.2139;90.1533
-13.5057;94.4027
-18.3913;91.4851
-17.5855;91.7396
-12.1282;90.6624
-13.6596;88.8263
-12.3782;93.5497
-19.2593;89.5615
-14.3258;85.6996
-18.7676;87.1694
-19.5537;87.3732
-16.7283;94.7954
-20.5656;90.0485
-20.7852;87.5222
-14.873;93.7842
-17.8093;92.404
-14.9401;88.4066
