-25.622540660905;115.13030679537
18.214119677485;123.62774737181
39.77464270948;115.69243667952
-20.116919102773;123.45540314915
-11.643621213752;126.17656641288
-39.389592226518;123.82773460164
-41.058165663069;111.47141084853
19.769500600495;110.81306954742
-28.991561982271;123.95427806869
-27.070595170719;126.62825459222
-47.619784928143;123.8332685147
-10.031394494864;105.71204961501
8.3048180538653;129.88463579189
-40.646992392264;115.48959194178
31.933802131824;114.42262334726
-15.018228441113;112.68887127017
31.11137731721;125.7776658893
-8.7126288328995;134.19843332533
5.6927868279954;112.17803758435
1.179861309003;127.17804732892
31.438179756875;118.97808913222
-48.148783170371;117.64209391003
-35.02181265587;129.46453709627
-49.438295198798;120.20999310772
8.6401140806896;118.38331092026
-24.74864884158;107.83485432695
14.370745921485;125.0551705757
-1.7155523987413;119.17544302984
-40.766213877966;117.96533846917
21.110315166339;117.31978761625
-39.703703132884;123.04320327586
43.546399192427;115.94321548962
34.812965230129;127.85467349224
-33.881864211452;117.99573330614
4.6580459486494;122.01005838587
36.000019913453;123.61417292901
40.186544513696;121.30505655218
31.071664088759;113.04115295699
-24.273955420298;127.08370192363
-41.113257628777;114.44695990979
-1.5291744909291;127.68772536475
-3.5361529324812;122.03570774411
-14.605566168634;112.94389134718
-32.985588863266;128.2295661162
12.538741586465;125.93221049429
22.443629656493;110.4227449702
-21.6117035332;122.81607605284
21.355956483762;120.23298291725
3.6856421419575;115.55601318857
-7.753296592995;120.89656303442
19.314808281388;133.2275105857
-3.9200740567761;112.32663556547
-13.766097400732;106.02409803942
-44.308024122679;125.24544658261
-19.184351799214;114.06461811305
20.925213164398;117.26073625545
2.1189156658339;132.9741509424
-21.013868987354;114.60786147096
9.4953291348961;108.1375841324
-5.4294029026046;105.27982786884
-17.684447147919;123.32283457556
15.491838324071;128.41593815808
-33.868774579923;127.64241452428
-12.64608480056;119.88515867672
-6.0998755604014;111.08103219911
-11.62208178425;116.54306503532
21.51122361551;121.64589740589
-44.352306837444;118.57625176462
2.3138492688786;110.29024335318
21.516521907023;114.4884089727
3.7483753061286;117.05239988621
-13.77139296398;105.89617476623
-16.260982977762;119.65202164762
32.62808255301;130.03008053817
-20.85635573686;132.91290897838
-36.432811451991;125.62983991543
-14.791223934514;113.5293143712
26.249376495946;123.21557087026
-26.956851689705;121.71894101939
-10.401456346052;128.61703826899
-15.595026845453;112.04697149558
7.8833948546667;123.51851001148
-16.045703060457;107.35675131951
3.9581610218838;107.06534436024
8.5596427882091;131.45114192474
24.60227742331;127.04561318146
-30.522681061658;126.64620829291
-5.6156514245912;130.06700930351
6.3951248234622;115.03056199714
25.577936184534;125.41848237504
22.426054322;107.37177415948
-23.808755526461;125.06283363595
30.806679077527;129.89093232103
13.015092816518;126.8846069102
9.0309408567344;126.76616136756
15.300083170433;112.05082105196
11.376025175355;118.30809438535
-12.230565975642;112.54114834359
46.394979983603;121.12753044699
12.120705491901;133.95818630246
-17.5444860784;131.90739647203
-48.600616292061;122.02516879367
-31.64219851752;119.04146488431
-0.026552360863095;119.31791749217
-7.7061294754343;107.64591560796
11.993070668895;108.48091309896
38.914984538451;113.40788667774
24.247833816212;114.00823648915
-15.754680392732;114.48685170569
25.991350344545;113.20866186573
32.979856054961;114.82481222433
-11.417365594962;132.92939533228
-3.1781435690499;116.90735205513
42.373213287276;114.98934169854
19.644333850727;109.18857834138
20.030847945144;118.91728962605
-13.083038726061;132.16125070839
-25.329685238387;108.59722910363
-13.11696322783;115.00932371204
16.908253432824;133.64498303138
14.481581728958;128.26730706799
-8.606641158514;132.62691136095
-18.311786066552;117.65637797528
-4.1243987014118;115.7826856672
-37.1128934687;125.21634042738
39.335740892294;119.24420309548
23.633583077202;122.44120105357
37.994446256579;114.61684248521
1.5181546799096;127.85031964783
19.188374688892;112.93765160079
1.2459297296722;126.34477062783
37.325604091766;126.16908097909
-2.7132697217091;125.5355541789
22.064732999933;110.77826859057
41.16375239723;124.69172079009
-19.612723692693;117.47378321558
-35.660067420554;129.89151723653
16.105526257751;125.70492832177
-38.940623225641;128.51174527649
-42.341661553513;123.20903532544
4.4009208432332;122.62284590013
21.107853672957;124.75420510694
-37.005353967948;122.88715950263
28.252913085641;119.46330996304
23.433120248966;121.54707749831
-11.782729919044;116.28296760723
0.55284938783531;119.11821647787
-12.032370048006;122.55580934197
-41.529820103704;118.14765991409
21.54320404152;110.18467869266
-16.976069970628;127.37404057161
5.3768725494102;114.19822382861
11.47730483967;106.43140270236
7.1604325527321;132.66932075958
-29.487710537531;123.7127945611
14.351980565582;107.04113493218
-19.213717231777;112.28282102628
36.945779802571;119.08700113352
24.171450280493;130.70637960379
-14.343074577536;117.55999814556
46.872362283152;118.13139119671
-2.3983306085067;124.00528662224
-18.615905497658;118.71277405821
-3.003007118874;120.09924888896
26.451799770771;122.74126448922
17.984403486396;107.6279867923
14.060091303442;128.7588381038
47.598144228603;123.74596782413
-33.523439957132;121.07022549477
-14.487913133381;112.7997789219
-29.146799445593;112.00874900988
43.664418356184;119.34043858098
42.303304836643;118.01874131148
-42.579284948897;121.70022186542
-45.910964286488;116.33581151609
-12.4494088415;110.71118550327
23.066190486936;131.01138284131
-21.008126919546;128.03206849447
-20.116918282456;109.21363527904
12.284264818662;106.42336140984
-18.732177686407;125.73041636543
-2.2103332018426;111.7542996997
-2.9874991862625;107.38496486826
21.06205484552;126.5815299218
1.6492658401772;112.1155917789
-42.166719019932;118.98451851889
-19.04855847295;117.30371221691
-6.394325285726;128.85513463323
7.8019993892461;124.87980967843
24.099247929553;111.0632157668
-15.868618874639;133.73363477565
-30.34057511583;122.26811709302
11.737758853578;108.96929732344
-29.727719818549;122.80086873935
-40.404347074559;111.1688909885
23.147136403014;128.7263527244
-34.933108179718;123.31062543357
11.842433324422;113.69807691525
-0.30917487981726;133.40201745934
-20.650996760528;108.11686089656
40.236567504312;111.6669437064
35.935796330926;123.53832852991
-0.25385702129697;134.70294018539
27.643429156343;125.11256532506
-11.312542701723;109.11377595371
26.022270008652;110.496655498
-32.560608264436;112.65254560746
17.083088025398;115.43538289487
-15.719874096021;130.97468337842
-19.058339102108;108.13465028075
-42.085195297528;122.06164262403
3.930877837688;133.88386160073
43.312438669131;113.63517171575
-41.910691618346;112.21091767109
-24.507997797192;122.05949604456
4.6348147712057;129.39496350622
-20.608359310741;116.87937948691
-32.903903655711;125.77810143381
-30.052790296128;128.40738851175
-32.92795265612;115.23587688563
24.057038062104;108.90228502028
-27.0861979741;116.71239309866
11.412401463822;130.47631439747
16.386619631831;107.68105898489
8.7518313266018;121.24736336276
-12.571606446524;105.73373125089
12.744497493457;120.2737709399
2.2149523086843;127.53075585611
22.019816893861;111.14186730984
-41.641714826836;118.56877403418
-32.360024135195;112.25329454431
-30.498055964302;127.01036892152
2.8740539067918;108.59192135929
40.370188407829;118.96770405771
-38.78125589025;118.34886334856
15.281519678137;119.24729549662
-15.777016442421;107.08970206789
-10.458117209595;127.89410701718
-49.716336777652;118.83401236413
26.665046995506;109.77772167345
-39.977065630401;116.37494067325
-17.355848488315;109.30667464759
14.506549807101;132.34619379171
34.535057112532;125.65036146818
12.187000538371;125.16831758012
-23.323369989263;111.9673891473
19.764340526377;114.58002989675
-21.854042539802;132.38385437657
-0.563396875159;110.55595385672
-6.2839098198059;119.1659148941
-43.757260366847;120.70990835107
13.767902123025;129.16790807119
-29.888289612993;109.59053973729
-4.0241455098177;108.07063757938
35.27290211017;112.23217283242
-16.776109557626;114.33303932165
-22.934079222889;110.50237946021
-8.9019795089891;130.65913239781
9.1919897709408;122.85335051555
47.020061550566;118.68584892029
26.419085042546;109.8716585713
-28.400823166703;115.30144789208
-10.514218337519;131.5884342837
20.849541742667;109.30920162846
-24.235828341808;115.35852758138
39.361352923206;124.6024477884
6.6730975856092;117.36978058422
-39.771921834561;128.01436248386
30.803522157393;124.91840391214
1.7324759756788;109.26590514159
40.088227352274;126.51664311572
4.9513509974309;127.93454132871
-21.436685344167;124.65158219652
5.4233261851253;120.36435282087
41.851089836837;126.57213170533
2.7826043759342;114.10750348665
27.836574336814;118.79840246871
13.760896725618;106.06456333954
-32.143028364545;109.74036962264
25.95334429487;123.63370372927
39.567858459236;112.67911126123
38.967301295518;123.26999215244
29.265788531342;131.86049012257
-24.063743602476;115.74577422495
28.626603850235;127.50614779232
16.586165537038;129.02554680615
-11.859276998545;116.21292270788
-8.9747764730005;133.98614152843
-10.969043178462;108.91429937905
20.727930574488;126.66047561882
11.175882097279;117.81530451978
39.715472000305;126.00746748151
2.8130626976315;111.45557193
12.439654694859;113.68695998773
44.366099699963;117.68573385991
-23.973529167843;122.06237507051
-23.952716573217;121.65598556415
16.533971137288;129.87386458581
10.307950203754;134.00250172768
-2.444902557117;130.470687448
90.511010630917;134.75137309602
118.86815641789;141.56578897319
104.29861494023;147.7264544456
117.33484755854;140.80382005573
98.756532335391;149.70472886416
95.259140617325;149.84286017778
63.147445128966;153.59180568576
60.114108140855;151.7409954804
96.426832391725;140.07045023193
97.627936927378;139.25507067271
107.85831756448;157.95387541779
124.20803250899;151.86795345584
117.79092871745;132.50823057471
107.32029274143;148.99249280497
103.63814852271;135.60617120229
78.548347205957;146.86512637057
112.6986018355;136.08800333244
81.158191354686;139.03123317246
112.69798311926;140.12996606556
110.75241006937;139.6649213512
111.95355889553;154.32494923865
127.23809567925;137.22324443708
70.011636004431;142.0217063075
137.42287755047;142.34161210417
129.97356939772;134.69770407164
95.076311781655;158.56774082287
97.670300933993;153.69743609898
79.309752326704;147.01544043209
87.794702476277;136.58116504921
75.895640083933;141.7433946093
90.685071422557;140.06464308848
136.33733055831;139.83068070357
62.001507258057;137.74857198477
62.478792212377;148.93411596957
121.28867073607;135.21613772985
91.161978360256;147.81268403833
114.22468870606;145.88945558978
65.835437378187;142.74958125229
117.8831368982;155.52593748625
97.696333694594;143.06812349275
98.540794686956;143.25673773713
102.10892601384;147.0302526134
128.05854690786;136.75985490676
87.960158978753;140.00766027706
104.45084290414;151.96557884205
102.87313454744;140.93481997293
92.008272371925;149.09498323859
102.39651890318;144.85472357892
92.338710214647;137.56169923956
88.626045641297;150.2463374764
22.19192532871;229.78363952031
18.976289984755;179.44318016108
58.714417507773;226.13447344984
14.118376999061;177.25958760668
25.391994486795;222.0903721033
74.197230670448;229.20213096473
47.572595374335;156.19557463243
13.878903223818;177.2336867788
30.258556752188;227.51437839555
38.548705169275;208.43763572927
34.797222684534;177.74121158067
64.41492211219;235.93056735566
68.006281175564;237.56253037572
45.484244477377;213.4930871953
46.158112381525;176.73138541883
34.492607198903;222.69057003498
20.435622320599;205.15621687187
74.325713827858;204.84132696326
14.007779927256;184.35561620788
50.516870393711;228.64772495323
69.59982636916;184.65521647925
19.887248274211;172.86311627137
75.141067782745;171.17645344959
56.090068444427;240.35384822222
65.408110280617;160.86348779489
71.363956975144;210.20509026732
56.470572627781;207.19244324751
87.684819695887;221.35891299876
52.523065128805;228.41946370634
50.702384996751;189.42084808142
52.075640571265;231.62576348832
31.219540662042;217.33536261678
35.77247328225;239.17549850986
22.772730875432;201.31811077621
68.626000575664;199.55547491031
48.374352885082;237.49202077053
50.859708946643;170.88357378511
76.223854722371;174.41451302984
46.788321841975;199.00976093328
14.232846690164;191.86753763546
87.858496107631;193.59773887845
62.97253622792;232.50749227202
81.400071092995;221.59132488651
60.608806629642;160.26448160783
85.611079399896;219.93980375967
53.309615572427;215.0559023231
56.085462348355;184.07971661663
26.608915111444;167.94208720555
44.346076198195;206.6567913174
71.659452377643;187.03430303838
47.059784552744;162.51554211245
23.017924974335;191.77006213211
68.123684476908;170.45152481123
28.343882381806;193.45605472922
22.067499323834;215.85468876945
79.801145783114;171.06769435365
47.427163336002;202.1666071403
54.614438551605;190.64098259145
41.337950752568;194.94984378112
28.965759991193;188.3976350578
43.539825689487;159.09196322386
57.802013226578;171.03093607635
22.839485724515;228.90299576672
54.905892722118;176.78245616782
76.659061043449;234.50133605068
25.373954243071;202.93516104799
66.455755836852;206.14288815118
49.077010690664;204.58499081077
79.447713007972;218.61836522362
81.423902125229;204.6571477563
65.33012546389;224.13012802
10.201125484548;217.41675952361
44.313302956666;208.36169251631
40.937106268267;174.62638413219
88.553865948141;191.65301279187
74.035718665065;181.68830282978
9.6633732042799;191.47719155778
87.519273291451;203.76054273761
9.6507161633945;185.48051244454
27.537639873911;226.31510360166
56.430657398537;216.76650665531
38.534436184877;206.77140099251
72.260328030996;236.24036038662
49.83972597884;185.91303662111
9.4883046463556;191.68350346759
33.254790482823;240.58039161006
84.290542317119;214.13993043115
56.139108710459;214.37870193172
81.895999743808;218.48566743028
38.735813915783;236.82417055224
10.203013943801;213.52880633473
39.689727205541;233.5445744481
73.744720191545;185.50032886493
51.259641015473;210.840839659
50.90371557988;161.76758870865
48.845992108039;196.86438350794
37.724391475418;216.83558835774
37.69430175122;183.09181365108
31.36181881749;192.93522454653
77.762925942777;166.71581842533
65.896525227189;177.45486004254
8.7531510988931;196.3136799204
37.496521782616;187.06263232078
12.545705588935;178.51259077578
28.6423743592;232.11381870764
38.334297620726;206.9467447771
33.153372122156;220.9650006951
31.488370426973;176.54916642098
58.764544803842;207.18290187748
33.313846388779;202.52875516069
33.445795139533;210.03981829705
94.198434795841;198.23703755067
57.288514002128;194.98806288539
46.492982455805;175.02137858198
48.046746689518;234.33632553878
60.549698574371;218.35983142597
70.759306105278;172.24408963793
52.641163124917;214.03186221952
57.824405284054;172.33889676909
33.627713220661;163.25690744351
37.9541274984;211.88401997117
37.396749838749;232.21960870918
11.446826630363;212.28602145248
82.918584748953;171.75241774725
85.54886461081;224.86350236556
77.207348080743;175.21082019482
14.068781662131;213.62342830408
87.389507018095;222.75607149628
82.689072863046;228.49823398659
36.132062842281;225.41445738137
66.377667269582;191.52138190465
73.991446411477;190.41549953909
10.37448027952;208.97584463334
52.986246762964;242.8690891584
19.238085656238;225.85983808741
61.606068630851;214.33623105757
15.680729865271;225.25379372331
51.928970836522;211.01402045176
54.068046110482;205.25704297519
84.620997700991;178.97516841475
45.169169585878;221.15840441787
52.802208014306;161.00261764881
16.123505112144;203.68082451538
47.167959484574;191.68701488519
84.332689651405;203.0335286879
81.401715836115;207.01609881258
65.49066849962;162.71699530034
33.665110240399;220.88270460313
59.641628862272;163.11618352336
50.687539448379;156.61485231664
-16.384478719907;-91.808705482453
-39.860460094932;-113.54551308802
-24.650080401334;-100.50035213713
-13.766167283141;-103.4799324215
-34.546371557917;-115.00096911866
-28.88516129906;-94.285797633117
-28.940977548642;-99.043485245967
-45.041677997504;-101.04103941775
-18.591435184998;-86.93096234752
-24.869779873923;-71.207793693787
-28.157631635743;-86.389024792634
-8.9460232663277;-95.391323577053
-18.009117224805;-123.6282518561
-34.735846758537;-96.754230398054
-18.724247565973;-128.97696595103
-39.710885170249;-121.85444361692
-11.77278386268;-74.978163244282
-32.425283125271;-82.613397708095
-19.377437575566;-99.826748657485
-35.599370142163;-125.02042867674
-26.89719884082;-86.15510750673
-3.2683262050791;-97.259527044403
4.5682386235199;-114.9873096631
-15.396067975353;-81.073383558797
-15.547021999172;-108.37520070948
-1.2167210829513;-93.703418933711
-7.7044585558092;-91.781760493014
-25.441907476522;-85.652998814492
-27.706068857983;-113.54596629097
-23.181439322661;-88.04859239101
-15.122124731067;-100.02308377647
4.597637313717;-86.041997328312
-11.414185826516;-101.12654115699
-29.390522327994;-123.58700469342
-41.412221410587;-94.572968190255
-34.578711878509;-83.459475221039
-26.389382433852;-107.94353146365
-24.991382116228;-108.88303464869
-5.1743329222504;-118.4095245919
-4.875909601376;-78.83843839377
-21.983783603114;-97.948487724625
-45.202166891664;-102.83395200466
-39.365125938772;-97.477085539399
-20.225585692271;-84.720294142378
-31.640479073421;-95.975121499814
-28.060434891374;-106.76368164256
3.0393717125886;-112.15652298518
-5.74491760251;-110.61639891115
-43.472371281346;-102.03975156101
-45.069081482692;-100.70636648714
-11.288011330192;-121.22662840437
-23.566971828184;-73.370728286772
-48.646452543845;-100.226178366
-49.336958762776;-105.74108444035
-9.6618646342854;-113.18146642677
7.0249447878115;-88.42922823595
-14.673390442962;-106.74604555476
-40.787193756266;-92.671850455984
-8.8764963121283;-113.57431639921
-7.8102349045013;-88.054137665427
-71.991280782175;-199.8845972256
-56.461224197414;-203.70978946421
-54.353288165406;-200.44657902835
-63.759697379959;-196.25450491907
-54.482656115191;-202.11809640576
-65.979040238577;-202.36425940543
-49.555355124019;-202.16179820763
-54.595991025721;-203.30664670703
-56.904873875833;-203.051041157
-65.725461149043;-202.57954011041
-55.358716220153;-197.35975885203
-69.70572349984;-199.68812727941
-65.420392330711;-201.59141697801
-47.740528027408;-197.85334117617
-50.173674870901;-197.61128034161
-46.609352754008;-200.37623741521
-46.757779670208;-201.45736256212
-54.747353872889;-202.27074592892
-70.241786028189;-197.94600608697
-47.103706638194;-201.62378390483
-72.24287794938;-199.51513294874
-59.706521729313;-197.81346048376
-55.614863110711;-198.15854075189
-48.561613386314;-199.75918848407
-60.925567888641;-197.18699648293
-71.635123064416;-202.8675969668
-71.887498702617;-198.0261592827
-69.710221267536;-201.83358567765
-72.152775915786;-202.51488154218
-63.965037352227;-197.86833062822
-71.770704515453;170.94332630639
-103.52956520395;165.08433925311
-138.40060174964;203.50132121822
-102.30265488846;219.36755489718
-107.08564781669;222.0231273593
-52.081395356751;193.69548400677
-64.643626123372;216.8593239434
-66.875956940545;189.52056143754
-139.47650223264;203.43703750687
-82.625952767014;249.04784324928
-50.103904272532;194.45211340196
-102.22250881606;167.31215396755
-73.814148657134;206.10702188523
-98.531272135097;247.3550144732
-84.193032847191;226.42615432647
-69.217912517415;205.77558134444
-105.03825620468;192.54256409197
-59.185276195585;208.36572153837
-64.192154584656;228.28325679652
-124.53819688636;215.55700664777
-90.715662258557;193.31248719391
-102.096879187;188.39588375036
-55.638577306388;232.87096181238
-81.814496663728;209.58253803185
-70.042997997144;178.66386700787
-124.1272220316;196.5347847966
-91.801825004512;167.22480470458
-95.642980796641;168.42870342021
-44.997248109073;211.62238453346
-68.845593681473;201.79752421699
